<?xml version="1.0" encoding="UTF-8"?>
<session version="1.0">
<refactoring comment="Copy element &apos;TC66_Quoting_ZSD1SBA.java&apos; to &apos;in.valtech.westcon.test.am.TC66_Quoting_ZSD1SBA.java&apos;&#x0D;&#x0A;- Original project: &apos;Westcon DTE Automation&apos;&#x0D;&#x0A;- Destination element: &apos;in.valtech.westcon.test.am.TC66_Quoting_ZSD1SBA.java&apos;&#x0D;&#x0A;- Original element: &apos;in.valtech.westcon.test.am.TC66_Quoting_ZSD1SBA.java&apos;" description="Copy compilation unit" destination="/src&lt;in.valtech.westcon.test.am{TC66_Quoting_ZSD1SBA.java" element1="/src&lt;in.valtech.westcon.test.am{TC66_Quoting_ZSD1SBA.java" files="0" flags="589830" folders="0" id="org.eclipse.jdt.ui.copy" policy="org.eclipse.jdt.ui.copyResources" stamp="1490603749702" units="1" version="1.0"/>
</session>